{
  "name": "default",
  "type": "postgres",
  "host": "localhost",
  "port": 5432,
  "username": "typedtest",
  "password": "secret123",
  "database": "typegraphql",
  "synchronize": true,
  "logging": true,
  "entities": ["app/entity/*.*"]
}